{
	"environments" : {
		"vagrant" : {
			"src" : "./env/vagrant",
			"dest" : "build/desktop/js"
		},
		"test" : {
			"src" : "./env/test",
			"dest" : "build/desktop/js"
		}
	},
	"bowerpath" : "./bower_components",
	"resourcepath" : "./resources",
	"sourcepath" : "./resources/js"
}